<?xml version="1.0" encoding="UTF-8"?>
<glyph name="currency" format="1">
  <advance width="1228"/>
  <unicode hex="00A4"/>
  <outline>
    <contour>
      <point x="435" y="1006"/>
      <point x="247" y="791"/>
      <point x="247" y="545" type="curve" smooth="yes"/>
      <point x="247" y="341"/>
      <point x="389" y="198"/>
      <point x="604" y="198" type="curve" smooth="yes"/>
      <point x="865" y="198"/>
      <point x="1053" y="413"/>
      <point x="1053" y="659" type="curve" smooth="yes"/>
      <point x="1053" y="863"/>
      <point x="911" y="1006"/>
      <point x="696" y="1006" type="curve" smooth="yes"/>
    </contour>
    <contour>
      <point x="125" y="255" type="line" smooth="yes"/>
      <point x="90" y="226"/>
      <point x="89" y="199"/>
      <point x="122" y="159" type="curve" smooth="yes"/>
      <point x="156" y="119"/>
      <point x="183" y="116"/>
      <point x="217" y="145" type="curve" smooth="yes"/>
      <point x="421" y="316" type="line"/>
      <point x="332" y="428" type="line"/>
    </contour>
    <contour>
      <point x="791" y="322" type="line"/>
      <point x="950" y="133" type="line" smooth="yes"/>
      <point x="979" y="98"/>
      <point x="1006" y="97"/>
      <point x="1046" y="130" type="curve" smooth="yes"/>
      <point x="1086" y="164"/>
      <point x="1089" y="191"/>
      <point x="1060" y="225" type="curve" smooth="yes"/>
      <point x="900" y="415" type="line"/>
    </contour>
    <contour>
      <point x="825" y="864"/>
      <point x="906" y="778"/>
      <point x="906" y="652" type="curve" smooth="yes"/>
      <point x="906" y="497"/>
      <point x="796" y="340"/>
      <point x="614" y="340" type="curve" smooth="yes"/>
      <point x="475" y="340"/>
      <point x="394" y="426"/>
      <point x="394" y="552" type="curve" smooth="yes"/>
      <point x="394" y="707"/>
      <point x="504" y="864"/>
      <point x="686" y="864" type="curve" smooth="yes"/>
    </contour>
    <contour>
      <point x="214" y="1040"/>
      <point x="211" y="1013"/>
      <point x="240" y="979" type="curve" smooth="yes"/>
      <point x="400" y="789" type="line"/>
      <point x="509" y="882" type="line"/>
      <point x="350" y="1071" type="line" smooth="yes"/>
      <point x="321" y="1106"/>
      <point x="294" y="1107"/>
      <point x="254" y="1074" type="curve" smooth="yes"/>
    </contour>
    <contour>
      <point x="879" y="888" type="line"/>
      <point x="968" y="776" type="line"/>
      <point x="1175" y="949" type="line" smooth="yes"/>
      <point x="1210" y="978"/>
      <point x="1211" y="1005"/>
      <point x="1178" y="1045" type="curve" smooth="yes"/>
      <point x="1144" y="1085"/>
      <point x="1117" y="1088"/>
      <point x="1083" y="1059" type="curve" smooth="yes"/>
    </contour>
  </outline>
  <lib>
    <dict>
      <key>com.typemytype.robofont.layerData</key>
      <dict>
        <key>background</key>
        <dict>
          <key>anchors</key>
          <array>
          </array>
          <key>components</key>
          <array>
          </array>
          <key>contours</key>
          <array>
            <dict>
              <key>points</key>
              <array>
                <dict>
                  <key>smooth</key>
                  <false/>
                  <key>x</key>
                  <integer>472</integer>
                  <key>y</key>
                  <integer>1006</integer>
                </dict>
                <dict>
                  <key>smooth</key>
                  <false/>
                  <key>x</key>
                  <integer>269</integer>
                  <key>y</key>
                  <integer>838</integer>
                </dict>
                <dict>
                  <key>segmentType</key>
                  <string>curve</string>
                  <key>smooth</key>
                  <true/>
                  <key>x</key>
                  <integer>240</integer>
                  <key>y</key>
                  <integer>602</integer>
                </dict>
                <dict>
                  <key>smooth</key>
                  <false/>
                  <key>x</key>
                  <integer>211</integer>
                  <key>y</key>
                  <integer>368</integer>
                </dict>
                <dict>
                  <key>smooth</key>
                  <false/>
                  <key>x</key>
                  <integer>360</integer>
                  <key>y</key>
                  <integer>198</integer>
                </dict>
                <dict>
                  <key>segmentType</key>
                  <string>curve</string>
                  <key>smooth</key>
                  <true/>
                  <key>x</key>
                  <integer>594</integer>
                  <key>y</key>
                  <integer>198</integer>
                </dict>
                <dict>
                  <key>smooth</key>
                  <false/>
                  <key>x</key>
                  <integer>828</integer>
                  <key>y</key>
                  <integer>198</integer>
                </dict>
                <dict>
                  <key>smooth</key>
                  <false/>
                  <key>x</key>
                  <integer>1031</integer>
                  <key>y</key>
                  <integer>368</integer>
                </dict>
                <dict>
                  <key>segmentType</key>
                  <string>curve</string>
                  <key>smooth</key>
                  <true/>
                  <key>x</key>
                  <integer>1060</integer>
                  <key>y</key>
                  <integer>602</integer>
                </dict>
                <dict>
                  <key>smooth</key>
                  <false/>
                  <key>x</key>
                  <integer>1089</integer>
                  <key>y</key>
                  <integer>838</integer>
                </dict>
                <dict>
                  <key>smooth</key>
                  <false/>
                  <key>x</key>
                  <integer>940</integer>
                  <key>y</key>
                  <integer>1006</integer>
                </dict>
                <dict>
                  <key>segmentType</key>
                  <string>curve</string>
                  <key>smooth</key>
                  <true/>
                  <key>x</key>
                  <integer>706</integer>
                  <key>y</key>
                  <integer>1006</integer>
                </dict>
              </array>
            </dict>
            <dict>
              <key>points</key>
              <array>
                <dict>
                  <key>smooth</key>
                  <false/>
                  <key>x</key>
                  <integer>853</integer>
                  <key>y</key>
                  <integer>864</integer>
                </dict>
                <dict>
                  <key>smooth</key>
                  <false/>
                  <key>x</key>
                  <integer>936</integer>
                  <key>y</key>
                  <integer>754</integer>
                </dict>
                <dict>
                  <key>segmentType</key>
                  <string>curve</string>
                  <key>smooth</key>
                  <true/>
                  <key>x</key>
                  <integer>912</integer>
                  <key>y</key>
                  <integer>602</integer>
                </dict>
                <dict>
                  <key>smooth</key>
                  <false/>
                  <key>x</key>
                  <integer>888</integer>
                  <key>y</key>
                  <integer>450</integer>
                </dict>
                <dict>
                  <key>smooth</key>
                  <false/>
                  <key>x</key>
                  <integer>761</integer>
                  <key>y</key>
                  <integer>340</integer>
                </dict>
                <dict>
                  <key>segmentType</key>
                  <string>curve</string>
                  <key>smooth</key>
                  <true/>
                  <key>x</key>
                  <integer>604</integer>
                  <key>y</key>
                  <integer>340</integer>
                </dict>
                <dict>
                  <key>smooth</key>
                  <false/>
                  <key>x</key>
                  <integer>447</integer>
                  <key>y</key>
                  <integer>340</integer>
                </dict>
                <dict>
                  <key>smooth</key>
                  <false/>
                  <key>x</key>
                  <integer>364</integer>
                  <key>y</key>
                  <integer>450</integer>
                </dict>
                <dict>
                  <key>segmentType</key>
                  <string>curve</string>
                  <key>smooth</key>
                  <true/>
                  <key>x</key>
                  <integer>388</integer>
                  <key>y</key>
                  <integer>602</integer>
                </dict>
                <dict>
                  <key>smooth</key>
                  <false/>
                  <key>x</key>
                  <integer>412</integer>
                  <key>y</key>
                  <integer>754</integer>
                </dict>
                <dict>
                  <key>smooth</key>
                  <false/>
                  <key>x</key>
                  <integer>539</integer>
                  <key>y</key>
                  <integer>864</integer>
                </dict>
                <dict>
                  <key>segmentType</key>
                  <string>curve</string>
                  <key>smooth</key>
                  <true/>
                  <key>x</key>
                  <integer>696</integer>
                  <key>y</key>
                  <integer>864</integer>
                </dict>
              </array>
            </dict>
            <dict>
              <key>points</key>
              <array>
                <dict>
                  <key>smooth</key>
                  <false/>
                  <key>x</key>
                  <integer>214</integer>
                  <key>y</key>
                  <integer>1040</integer>
                </dict>
                <dict>
                  <key>smooth</key>
                  <false/>
                  <key>x</key>
                  <integer>211</integer>
                  <key>y</key>
                  <integer>1013</integer>
                </dict>
                <dict>
                  <key>segmentType</key>
                  <string>curve</string>
                  <key>smooth</key>
                  <true/>
                  <key>x</key>
                  <integer>240</integer>
                  <key>y</key>
                  <integer>979</integer>
                </dict>
                <dict>
                  <key>segmentType</key>
                  <string>line</string>
                  <key>smooth</key>
                  <true/>
                  <key>x</key>
                  <integer>950</integer>
                  <key>y</key>
                  <integer>133</integer>
                </dict>
                <dict>
                  <key>smooth</key>
                  <false/>
                  <key>x</key>
                  <integer>979</integer>
                  <key>y</key>
                  <integer>98</integer>
                </dict>
                <dict>
                  <key>smooth</key>
                  <false/>
                  <key>x</key>
                  <integer>1006</integer>
                  <key>y</key>
                  <integer>97</integer>
                </dict>
                <dict>
                  <key>segmentType</key>
                  <string>curve</string>
                  <key>smooth</key>
                  <true/>
                  <key>x</key>
                  <integer>1046</integer>
                  <key>y</key>
                  <integer>130</integer>
                </dict>
                <dict>
                  <key>smooth</key>
                  <false/>
                  <key>x</key>
                  <integer>1086</integer>
                  <key>y</key>
                  <integer>164</integer>
                </dict>
                <dict>
                  <key>smooth</key>
                  <false/>
                  <key>x</key>
                  <integer>1089</integer>
                  <key>y</key>
                  <integer>191</integer>
                </dict>
                <dict>
                  <key>segmentType</key>
                  <string>curve</string>
                  <key>smooth</key>
                  <true/>
                  <key>x</key>
                  <integer>1060</integer>
                  <key>y</key>
                  <integer>225</integer>
                </dict>
                <dict>
                  <key>segmentType</key>
                  <string>line</string>
                  <key>smooth</key>
                  <true/>
                  <key>x</key>
                  <integer>350</integer>
                  <key>y</key>
                  <integer>1071</integer>
                </dict>
                <dict>
                  <key>smooth</key>
                  <false/>
                  <key>x</key>
                  <integer>321</integer>
                  <key>y</key>
                  <integer>1106</integer>
                </dict>
                <dict>
                  <key>smooth</key>
                  <false/>
                  <key>x</key>
                  <integer>294</integer>
                  <key>y</key>
                  <integer>1107</integer>
                </dict>
                <dict>
                  <key>segmentType</key>
                  <string>curve</string>
                  <key>smooth</key>
                  <true/>
                  <key>x</key>
                  <integer>254</integer>
                  <key>y</key>
                  <integer>1074</integer>
                </dict>
              </array>
            </dict>
            <dict>
              <key>points</key>
              <array>
                <dict>
                  <key>smooth</key>
                  <false/>
                  <key>x</key>
                  <integer>1144</integer>
                  <key>y</key>
                  <integer>1085</integer>
                </dict>
                <dict>
                  <key>smooth</key>
                  <false/>
                  <key>x</key>
                  <integer>1117</integer>
                  <key>y</key>
                  <integer>1088</integer>
                </dict>
                <dict>
                  <key>segmentType</key>
                  <string>curve</string>
                  <key>smooth</key>
                  <true/>
                  <key>x</key>
                  <integer>1083</integer>
                  <key>y</key>
                  <integer>1059</integer>
                </dict>
                <dict>
                  <key>segmentType</key>
                  <string>line</string>
                  <key>smooth</key>
                  <true/>
                  <key>x</key>
                  <integer>125</integer>
                  <key>y</key>
                  <integer>255</integer>
                </dict>
                <dict>
                  <key>smooth</key>
                  <false/>
                  <key>x</key>
                  <integer>90</integer>
                  <key>y</key>
                  <integer>226</integer>
                </dict>
                <dict>
                  <key>smooth</key>
                  <false/>
                  <key>x</key>
                  <integer>89</integer>
                  <key>y</key>
                  <integer>199</integer>
                </dict>
                <dict>
                  <key>segmentType</key>
                  <string>curve</string>
                  <key>smooth</key>
                  <true/>
                  <key>x</key>
                  <integer>122</integer>
                  <key>y</key>
                  <integer>159</integer>
                </dict>
                <dict>
                  <key>smooth</key>
                  <false/>
                  <key>x</key>
                  <integer>156</integer>
                  <key>y</key>
                  <integer>119</integer>
                </dict>
                <dict>
                  <key>smooth</key>
                  <false/>
                  <key>x</key>
                  <integer>183</integer>
                  <key>y</key>
                  <integer>116</integer>
                </dict>
                <dict>
                  <key>segmentType</key>
                  <string>curve</string>
                  <key>smooth</key>
                  <true/>
                  <key>x</key>
                  <integer>217</integer>
                  <key>y</key>
                  <integer>145</integer>
                </dict>
                <dict>
                  <key>segmentType</key>
                  <string>line</string>
                  <key>smooth</key>
                  <true/>
                  <key>x</key>
                  <integer>1175</integer>
                  <key>y</key>
                  <integer>949</integer>
                </dict>
                <dict>
                  <key>smooth</key>
                  <false/>
                  <key>x</key>
                  <integer>1210</integer>
                  <key>y</key>
                  <integer>978</integer>
                </dict>
                <dict>
                  <key>smooth</key>
                  <false/>
                  <key>x</key>
                  <integer>1211</integer>
                  <key>y</key>
                  <integer>1005</integer>
                </dict>
                <dict>
                  <key>segmentType</key>
                  <string>curve</string>
                  <key>smooth</key>
                  <true/>
                  <key>x</key>
                  <integer>1178</integer>
                  <key>y</key>
                  <integer>1045</integer>
                </dict>
              </array>
            </dict>
          </array>
          <key>lib</key>
          <dict>
          </dict>
          <key>name</key>
          <string>currency</string>
          <key>unicodes</key>
          <array>
          </array>
          <key>width</key>
          <integer>1228</integer>
        </dict>
      </dict>
    </dict>
  </lib>
</glyph>
